<?xml version="1.0" encoding="utf-8"?>
<!-- Generator: Adobe Illustrator 22.0.1, SVG Export Plug-In . SVG Version: 6.00 Build 0)  -->
<svg version="1.1" id="Layer_1" xmlns="http://www.w3.org/2000/svg" xmlns:xlink="http://www.w3.org/1999/xlink" x="0px" y="0px"
	 width="14.8px" height="14.2px" viewBox="0 0 14.8 14.2" style="enable-background:new 0 0 14.8 14.2;" xml:space="preserve">
<style type="text/css">
	.st0{fill:#00523C;}
	.st1{fill:#FFFFFF;}
</style>
<title>Asset 2</title>
<rect class="st0" width="14.8" height="14.2"/>
<polygon class="st1" points="7.4,0.4 9.5,4.9 14.4,5.5 10.8,8.8 11.7,13.7 7.4,11.3 3.1,13.7 4,8.8 0.4,5.5 5.3,4.9 "/>
</svg>
